[
	{
		"id": "1",
        "pos": { "x": 0, "y": 60},
        "height": [60],
        "width": [60], 
        "length": [120],
        "type": 1,
        "corners": []
    },
    {
		"id": "2",
        "pos": { "x": 60, "y": 37},
        "height": [37],
        "width": [45], 
        "length": [100],
        "type": 1,
        "corners": []
    },
    {
		"id": "3",
        "pos": { "x": 105, "y": 37},
        "height": [37],
        "width": [45], 
        "length": [100],
        "type": 1,
        "corners": []
    },
    {
		"id": "4",
        "pos": { "x": 150, "y": 35},
        "height": [30],
        "width": [35], 
        "length": [100],
        "type": 2,
        "corners": []
    }
,
    {
		"id": "5",
        "pos": { "x": 67, "y": 60},
        "height": [30],
        "width": [36], 
        "length": [120],
        "type": 2,
        "corners": []
    },
    {
		"id": "6",
        "pos": { "x": 67, "y": 96},
        "height": [30],
        "width": [36], 
        "length": [100],
        "type": 2,
        "corners": []
    },
    {
		"id": "7",
        "pos": { "x": 67, "y": 132},
        "height": [30],
        "width": [36], 
        "length": [100],
        "type": 2,
        "corners": []
    }
]